<svg height='100px' width='100px' fill="#8500CC" xmlns="http://www.w3.org/2000/svg" viewBox="0 0 100 100" x="0px"
     y="0px">
    <path d="M14.2 61.7H9.7c-.9 0-2.9-.3-3.2-1.7-.2-.7.1-1.2.3-1.5.1-.3.2-.4.1-.9-.4-1.4-.8-7.8 1.1-9.1 1.2-.8 4.7-3.2 20.4-4.3 13-6.9 15.4-7.7 19.2-8.1 4.1-.5 9.8-.4 15.2.3 4.6.5 13.5 3.8 17.8 5.3 1.1.4 2.1.8 2.3.8.7.2 4.4.5 6.6.7.3 0 .7.1 1.1.4.6.5.9 1.5.9 3 2.2 8.1 1 12.7-.4 13.8-.3.3-.7.6-7.5 1-.5 0-1-.4-1.1-.9 0-.6.4-1 .9-1.1 4.7-.3 6-.5 6.4-.6.6-.7 1.5-4.7-.4-11.8v-.3c0-.9 0-1.3-.1-1.5-.9-.1-5.8-.4-6.9-.7-.3-.1-1-.3-2.5-.9-4.2-1.5-13-4.7-17.4-5.2-5.2-.6-10.8-.7-14.7-.3-3.5.4-5.8 1.2-18.7 8-.1.1-.3.1-.4.1-10.1.7-16.7 2-19.6 4-.7.6-.8 5.3-.4 6.9.4 1.2.1 1.9-.2 2.4.3.1.8.2 1.2.2h4.4c.6 0 1 .4 1 1s-.4 1-.9 1zm75.7-3.1zM89.7 45z"></path>
    <path d="M65.9 61.8H31.7c-.6 0-1-.4-1-1s.4-1 1-1h34.2c.6 0 1 .4 1 1 0 .5-.5 1-1 1zM22.7 64.6c-4 0-7.3-3.3-7.3-7.3s3.3-7.3 7.3-7.3 7.3 3.3 7.3 7.3-3.3 7.3-7.3 7.3zm0-12.6c-2.9 0-5.3 2.4-5.3 5.3s2.4 5.3 5.3 5.3 5.3-2.4 5.3-5.3c0-3-2.4-5.3-5.3-5.3zM74.7 64.6c-4 0-7.3-3.3-7.3-7.3s3.3-7.3 7.3-7.3 7.3 3.3 7.3 7.3-3.3 7.3-7.3 7.3zm0-12.6c-2.9 0-5.3 2.4-5.3 5.3s2.4 5.3 5.3 5.3 5.3-2.4 5.3-5.3c0-3-2.4-5.3-5.3-5.3zM88.4 51.5c-.2 0-.4-.1-.6-.2-1.4-1.1-2.2-1.6-2.7-1.8-.8-.4-1.3-.8-1.3-1.9 0-.5.2-.9.5-1.2.9-.8 2.6-.8 3.1-.8.6 0 1 .5 1 1 0 .6-.5 1-1 1s-1 0-1.3.1c.5.3 1.5.8 3 2 .4.3.5 1 .1 1.4-.2.3-.5.4-.8.4zM33.9 46.8c-.5 0-1-.4-1-1s.4-1 1-1c.3 0 26-.7 28.1-.8.4 0 1-.1 1.7-.1 2-.1 7.3-.4 8.1-1 .4-.4 1-.4 1.4 0 .4.4.4 1 0 1.4-.9.9-3.8 1.2-9.4 1.5-.7 0-1.3.1-1.7.1-2.2.3-27.1.9-28.2.9zM52.3 51h-3.5c-.6 0-1-.4-1-1s.4-1 1-1h3.5c.6 0 1 .4 1 1s-.4 1-1 1zM10.1 54c-.5 0-1-.4-1-.9 0-.6.4-1 .9-1.1.7-.1 1.4-.2 2-.3-.4-.3-.5-.8-.3-1.2.3-.5.9-.7 1.3-.4.4.2 1.7.9 1.5 2.1 0 .3-.2 1.5-4.4 1.8.1 0 .1 0 0 0z"></path>
</svg>
