// Jest Snapshot v1, https://goo.gl/fbAQLP

exports[`DriverDetails.vue DriverDetails: renders correctly 1`] = `
<div
  class="driver-details selected"
>
  <img
    alt="Driver"
    src="@/assets/icons/person.svg"
    title="Driver ID: 1"
  />
   
  <dl>
    <dt>
      Name:
    </dt>
     
    <dd>
      <strong>
        Ellen
      </strong>
       
      <span>
        Ripley
      </span>
    </dd>
  </dl>
   
  <dl>
    <dt>
      Status:
    </dt>
     
    <dd>
      <span
        class="label"
      >
        
        is 
      
      </span>
    </dd>
  </dl>
   
  <!---->
</div>
`;
